Get Brazilian reservoirs data • reservatoriosBR
…
estado_sigla - Estado em forma de sigla.

rio - Nome do rio.

sub_bacia - Sub-bacia do rio.

bacia - Bacia hidrográfica do rio.

Agradeço ao pessoal da ANA, em especial, o coordenador Antônio Augusto, o especialista Diego Pena e o técnico Théo Albuquerque, que construíram essa tabela e apoiam essa iniciativa de dados abertos!

library(reservatoriosBR)

tabela_reservatorios() 
#> # A tibble: 804 x 12
#>    sistema            codigo reservatorio  res_latitude res_longitude municipio 
#>    <chr>               <int> <chr>                <dbl>         <dbl> <chr>     
#>  1 nordeste_semiarido  12001 25 DE MARÇO          -6.11         -38.2 PAU DOS F~
#>  2 nordeste_semiarido  12002 ABÓBORAS             -8.09         -39.4 PARNAMIRIM
#>  3 nordeste_semiarido  12003 ACARAPE DO M~        -4.19         -38.8 REDENÇÃO  
#>  4 nordeste_semiarido  12004 ACARAÚ MIRIM         -3.51         -40.3 MASSAPÊ   
#>  5 nordeste_semiarido  12005 ACAUÃ                -7.44         -35.6 ITATUBA   
#>  6 nordeste_semiarido  12006 ADAUTO BEZER~        -6.04         -38.4 PEREIRO   
#>  7 nordeste_semiarido  12007 ADUSTINA            -10.6          -38.1 ADUSTINA  
#>  8 nordeste_semiarido  12008 ÁGUA FRIA II        -14.9          -40.6 BARRA DO ~
#>  9 nordeste_semiarido  12009 AIPIM               -10.6          -40.3 ANTONIO G~
#> 10 nordeste_semiarido  12010 ALAGADIÇO           -10.5          -37.6 FREI PAULO
#> # ... with 794 more rows, and 6 more variables: codigo_municipio_ibge <int>,
#> #   estado_nome <chr>, estado_sigla <chr>, rio <chr>, sub_bacia <chr>,
#> #   bacia <chr>
…
codigo_municipio_ibge - Código do município na base do IBGE.

estado_nome - Estado em forma de nome.

estado_sigla - Estado em forma de sigla.

rio - Nome do rio.

sub_bacia - Sub-bacia do rio.

bacia - Bacia hidrográfica do rio.

tabela_reservatorios_ONS()
#> # A tibble: 39 x 12
#>    subsistema      reservatorio  codigo res_latitude res_longitude municipio    
#>    <chr>           <chr>          <int>        <dbl>         <dbl> <chr>        
#>  1 Nordeste        IRAPE          19115       -16.7          -42.6 GRÃO MOGOL   
#>  2 Nordeste        SOBRADINHO     19121        -9.42         -40.8 CASA NOVA    
#>  3 Nordeste        TRÊS MARIAS    19119       -18.2          -45.3 TRÊS MARIAS  
#>  4 Nordeste        LUIZ GONZAGA   19122        -9.15         -38.3 JATOBÁ       
#>  5 Norte           BALBINA        19141        -1.92         -59.5 PRESIDENTE F~
#>  6 Norte           SERRA DA MESA  19128       -13.8          -48.3 MINAÇU       
#>  7 Norte           TUCURUI        19134        -3.75         -49.7 TUCURUÍ      
#>  8 Sudeste / Cent~ A. VERMELHA    19015       -19.9          -50.4 ITURAMA      
#>  9 Sudeste / Cent~ FURNAS         19004       -20.7          -46.3 ALPINÓPOLIS  
#> 10 Sudeste / Cent~ M. MORAES      19005       -20.3          -47.1 SACRAMENTO   
#> # ... with 29 more rows, and 6 more variables: codigo_municipio_ibge <int>,
#> #   estado_nome <chr>, estado_sigla <chr>, rio <chr>, sub_bacia <chr>,
#> #   bacia <chr>
…
reservatorio_sin(codigo_reservatorio, data_inicial, data_final)

codigo_reservatorio O código do reservatório de acordo com o SIN (você pode consultar a tabela com os códigos chamando a função tabela_reservatorios()).

data_inicial Data inicial do registro. Se for anterior à data de funcionamento, retorna a data de registro mais antiga. O padrão é data_inicial = "1980-01-01"

data_final Data final do registro. Pode ser usado Sys.Date() para retornar a data de registro mais recente. O padrão é data_final = Sys.Date()

Dessa forma, a função funciona utilizando apenas: reservatorio_sin(codigo_reservatorio)

reservatorio_sin(19058, "2000-01-01", "2019-12-31")
#> # A tibble: 7,306 x 11
#>    data       codigo_reservatorio reservatorio cota_m afluencia_m3_s
#>    <date>     <fct>               <fct>         <dbl>          <dbl>
#>  1 2000-01-01 19058               ITAIPU         216.           9761
#>  2 2000-01-02 19058               ITAIPU         216.           9300
#>  3 2000-01-03 19058               ITAIPU         216.           9385
#>  4 2000-01-04 19058               ITAIPU         216.           9450
#>  5 2000-01-05 19058               ITAIPU         216.           8868
#>  6 2000-01-06 19058               ITAIPU         216.           8275
#>  7 2000-01-07 19058               ITAIPU         215.           7963
#>  8 2000-01-08 19058               ITAIPU         215.           8367
#>  9 2000-01-09 19058               ITAIPU         215.           9408
#> 10 2000-01-10 19058               ITAIPU         215.           8706
#> # ... with 7,296 more rows, and 6 more variables: defluencia_m3_s <dbl>,
#> #   vazao_vertida_m3_s <dbl>, vazao_turbinada_m3_s <dbl>,
#> #   vazao_natural_m3_s <dbl>, volume_util_percentual <dbl>,
#> #   vazao_incremental_m3_s <dbl>
…
tipo - Tipo? Ainda preciso descobrir o que isso significa

As funções ONS - Operador Nacional do Sistema Elétrico

A função ONS_reservatorios()

Essa função busca os dados atuais dos reservatórios brasileiros observados pelo Operador Nacional do Sistema Elétrico (ONS) e pode retornar valores em 2 formatos:

Tabela

Gera um dataframe com diversas variáveis de 39 reservatórios observados pela ONS.

ONS_reservatorios(formato = "tabela")
#> # A tibble: 39 x 19
#>    data       subsistema bacia  reservatorio  reservatorio_max reservatorio_ear~
#>    <date>     <fct>      <fct>  <chr>                    <dbl>             <dbl>
#>  1 2021-11-03 Norte      AMAZO~ BALBINA                   776.              470.
#>  2 2021-11-03 Norte      TOCAN~ TUCURUI                  7686.             3781.
#>  3 2021-11-03 Norte      TOCAN~ SERRA DA MESA            6530.             7238.
#>  4 2021-11-03 Nordeste   JEQUI~ IRAPE                    1006.              366.
#>  5 2021-11-03 Nordeste   SAO F~ ITAPARICA                3415.             2617.
#>  6 2021-11-03 Nordeste   SAO F~ SOBRADINHO              30048.             9923.
#>  7 2021-11-03 Nordeste   SAO F~ TRÊS MARIAS             16013               675.
#>  8 2021-11-03 Sul        CAPIV~ G. P. SOUZA               377.              153.
#>  9 2021-11-03 Sul        IGUACU SANTA CLARA-~             378.              308.
#> 10 2021-11-03 Sul        IGUACU G. B. MUNHOZ             5934.             3292.
#> # ... with 29 more rows, and 13 more variables:
#> #   reservatorio_ear_verificada_porcentagem <dbl>,
#> #   reservatorio_valor_util <dbl>, reservatorio_porcentagem <dbl>,
#> #   bacia_max <dbl>, bacia_ear_verificada_mw_mes <dbl>,
#> #   bacia_ear_verificada_porcentagem <dbl>, bacia_porcentagem <dbl>,
#> #   subsistema_max <dbl>, subsistema_ear_verificada_mw_mes <dbl>,
#> #   subsistema_valor_util <dbl>, sin_max <dbl>, ...
…
