…
reservatorio_sin(codigo_reservatorio, data_inicial, data_final)

codigo_reservatorio O código do reservatório de acordo com o SIN (você pode consultar a tabela com os códigos chamando tabela_reservatorios).

data_inicial Data inicial do registro. Se for anterior à data de funcionamento, retorna a data de registro mais antiga.

data_final Data final do registro. Pode ser usado Sys.Date() para retornar a data de registro mais recente.

reservatorio_sin(19058, "2000-01-01", "2019-12-31")

## # A tibble: 7,306 x 11
##    data_medicao codigo_reservat~ reservatorio cota_m afluencia_m3_s defluencia_m3_s vazao_vertida_m~
##    <date>       <fct>            <fct>         <dbl>          <dbl>           <dbl>            <dbl>
##  1 2000-01-01   19058            ITAIPU         216.           9761            8101                0
##  2 2000-01-02   19058            ITAIPU         216.           9300            8401                0
##  3 2000-01-03   19058            ITAIPU         216.           9385            8870                0
##  4 2000-01-04   19058            ITAIPU         216.           9450           10351                0
##  5 2000-01-05   19058            ITAIPU         216.           8868           10789                0
##  6 2000-01-06   19058            ITAIPU         216.           8275           10815                0
##  7 2000-01-07   19058            ITAIPU         215.           7963            9854                0
##  8 2000-01-08   19058            ITAIPU         215.           8367            8869                0
##  9 2000-01-09   19058            ITAIPU         215.           9408            8279                0
## 10 2000-01-10   19058            ITAIPU         215.           8706            8958                0
## # ... with 7,296 more rows, and 4 more variables: vazao_turbinada_m3_s <dbl>,
## #   vazao_natural_m3_s <dbl>, volume_util_percentual <dbl>, vazao_incremental_m3_s <dbl>
…
tipo - Tipo? Ainda preciso descobrir o que isso significa

As funções ONS - Operador Nacional do Sistema Elétrico

A função ONS_reservatorios()

Essa função busca os dados dos reservatórios brasileiros observados pelo Operador Nacional do Sistema Elétrico (ONS) e pode retornar valores em 2 formatos:

Tabela

Gera um dataframe com diversas variáveis de 39 reservatórios observados pela ONS.

ONS_reservatorios(formato = "tabela")

## # A tibble: 39 x 19
##    data_medicao subsistema bacia reservatorio reservatorio_max reservatorio_ea~ reservatorio_ea~
##    <date>       <fct>      <fct> <chr>                   <dbl>            <dbl>            <dbl>
##  1 2021-09-05   Norte      AMAZ~ BALBINA                  776.            655.              84.4
##  2 2021-09-05   Norte      TOCA~ TUCURUI                 7686.           6533.              85.0
##  3 2021-09-05   Norte      TOCA~ SERRA DA ME~            6530.           8830.              25.4
##  4 2021-09-05   Nordeste   JEQU~ IRAPE                   1006.            565.              28.5
##  5 2021-09-05   Nordeste   SAO ~ ITAPARICA               3415.           2381.              69.7
##  6 2021-09-05   Nordeste   SAO ~ SOBRADINHO             30048.          13946.              46.4
##  7 2021-09-05   Nordeste   SAO ~ TRÊS MARIAS            16013             974.              41.5
##  8 2021-09-05   Sul        CAPI~ G. P. SOUZA              377.             88.8             23.6
##  9 2021-09-05   Sul        IGUA~ SALTO SANTI~            3403.           1095.              32.2
## 10 2021-09-05   Sul        IGUA~ SANTA CLARA~             378.             83.7             22.1
## # ... with 29 more rows, and 12 more variables: reservatorio_valor_util <dbl>,
## #   reservatorio_porcentagem <dbl>, bacia_max <dbl>, bacia_ear_verificada_mw_mes <dbl>,
## #   bacia_ear_verificada_porcentagem <dbl>, bacia_porcentagem <dbl>, subsistema_max <dbl>,
## #   subsistema_ear_verificada_mw_mes <dbl>, subsistema_valor_util <dbl>, sin_max <dbl>,
## #   sinear_verificada_mw_mes <dbl>, sinear_porcentagem <dbl>
…
