Get brazilian reservoirs data • reservatoriosBR
…
reservatorio_sin(codigo_reservatorio, data_inicial, data_final)

codigo_reservatorio O código do reservatório de acordo com o SIN (você pode consultar a tabela com os códigos chamando tabela_reservatorios).

data_inicial Data inicial do registro. Se for anterior à data de funcionamento, retorna a data de registro mais antiga.

data_final Data final do registro. Pode ser usado Sys.Date() para retornar a data de registro mais recente.

reservatorio_sin(19058, "2000-01-01", "2019-12-31")
#> # A tibble: 7,306 x 11
#>    data_medicao codigo_reservat~ reservatorio cota_m afluencia_m3_s
#>    <date>       <fct>            <fct>         <dbl>          <dbl>
#>  1 2000-01-01   19058            ITAIPU         216.           9761
#>  2 2000-01-02   19058            ITAIPU         216.           9300
#>  3 2000-01-03   19058            ITAIPU         216.           9385
#>  4 2000-01-04   19058            ITAIPU         216.           9450
#>  5 2000-01-05   19058            ITAIPU         216.           8868
#>  6 2000-01-06   19058            ITAIPU         216.           8275
#>  7 2000-01-07   19058            ITAIPU         215.           7963
#>  8 2000-01-08   19058            ITAIPU         215.           8367
#>  9 2000-01-09   19058            ITAIPU         215.           9408
#> 10 2000-01-10   19058            ITAIPU         215.           8706
#> # ... with 7,296 more rows, and 6 more variables: defluencia_m3_s <dbl>,
#> #   vazao_vertida_m3_s <dbl>, vazao_turbinada_m3_s <dbl>,
#> #   vazao_natural_m3_s <dbl>, volume_util_percentual <dbl>,
#> #   vazao_incremental_m3_s <dbl>
…
tipo - Tipo? Ainda preciso descobrir o que isso significa

As funções ONS - Operador Nacional do Sistema Elétrico

A função ONS_reservatorios()

Essa função busca os dados atuais dos reservatórios brasileiros observados pelo Operador Nacional do Sistema Elétrico (ONS) e pode retornar valores em 2 formatos:

Tabela

Gera um dataframe com diversas variáveis de 39 reservatórios observados pela ONS.

ONS_reservatorios(formato = "tabela")
#> # A tibble: 39 x 19
#>    data_medicao subsistema bacia reservatorio reservatorio_max reservatorio_ea~
#>    <date>       <fct>      <fct> <chr>                   <dbl>            <dbl>
#>  1 2021-09-05   Norte      AMAZ~ BALBINA                  776.            655. 
#>  2 2021-09-05   Norte      TOCA~ TUCURUI                 7686.           6533. 
#>  3 2021-09-05   Norte      TOCA~ SERRA DA ME~            6530.           8830. 
#>  4 2021-09-05   Nordeste   JEQU~ IRAPE                   1006.            566. 
#>  5 2021-09-05   Nordeste   SAO ~ ITAPARICA               3415.           2381. 
#>  6 2021-09-05   Nordeste   SAO ~ SOBRADINHO             30048.          13946. 
#>  7 2021-09-05   Nordeste   SAO ~ TRÊS MARIAS            16013             974. 
#>  8 2021-09-05   Sul        CAPI~ G. P. SOUZA              377.             88.8
#>  9 2021-09-05   Sul        IGUA~ SALTO SANTI~            3403.           1095. 
#> 10 2021-09-05   Sul        IGUA~ SANTA CLARA~             378.             83.7
#> # ... with 29 more rows, and 13 more variables:
#> #   reservatorio_ear_verificada_porcentagem <dbl>,
#> #   reservatorio_valor_util <dbl>, reservatorio_porcentagem <dbl>,
#> #   bacia_max <dbl>, bacia_ear_verificada_mw_mes <dbl>,
#> #   bacia_ear_verificada_porcentagem <dbl>, bacia_porcentagem <dbl>,
#> #   subsistema_max <dbl>, subsistema_ear_verificada_mw_mes <dbl>,
#> #   subsistema_valor_util <dbl>, sin_max <dbl>, sinear_verificada_mw_mes <dbl>,
#> #   sinear_porcentagem <dbl>
…
