Dados atuais dos reservatorios brasileiros observados pela ONS — ONS_reservatorios • reservatoriosBR
…
    Dados atuais dos reservatorios brasileiros observados pela ONS

ONS_reservatorios(formato = "tabela")

    Arguments

      formato
      Formato dos dados a serem apresentados.

    Examples

ONS_reservatorios(formato="tabela")

#> # A tibble: 39 x 19
#>    data_medicao subsistema bacia reservatorio reservatorio_max reservatorio_ea~
#>    <date>       <fct>      <fct> <chr>                   <dbl>            <dbl>
#>  1 2021-09-07   Norte      AMAZ~ BALBINA                  776.            644. 
#>  2 2021-09-07   Norte      TOCA~ TUCURUI                 7686.           6496. 
#>  3 2021-09-07   Norte      TOCA~ SERRA DA ME~            6530.           8700. 
#>  4 2021-09-07   Nordeste   JEQU~ IRAPE                   1006.            560. 
#>  5 2021-09-07   Nordeste   SAO ~ ITAPARICA               3415.           2367. 
#>  6 2021-09-07   Nordeste   SAO ~ SOBRADINHO             30048.          13805. 
#>  7 2021-09-07   Nordeste   SAO ~ TRÊS MARIAS            16013             961. 
#>  8 2021-09-07   Sul        CAPI~ G. P. SOUZA              377.             90.0
#>  9 2021-09-07   Sul        IGUA~ SALTO SANTI~            3403.           1065. 
#> 10 2021-09-07   Sul        IGUA~ SANTA CLARA~             378.             87.6
#> # ... with 29 more rows, and 13 more variables:
#> #   reservatorio_ear_verificada_porcentagem <dbl>,
#> #   reservatorio_valor_util <dbl>, reservatorio_porcentagem <dbl>,
#> #   bacia_max <dbl>, bacia_ear_verificada_mw_mes <dbl>,
#> #   bacia_ear_verificada_porcentagem <dbl>, bacia_porcentagem <dbl>,
#> #   subsistema_max <dbl>, subsistema_ear_verificada_mw_mes <dbl>,
#> #   subsistema_valor_util <dbl>, sin_max <dbl>, sinear_verificada_mw_mes <dbl>,
#> #   sinear_porcentagem <dbl>
…
